infer 02 - Numerical inference Boostrap | Un Data Scientist Dice
…
We’ll wrap up inference on a single parameter of a numerical distribution by revisiting the ncbirths dataset, specifically the weight variable, indicating the birth weight of the baby. Do these data provide convincing evidence that the average birth weight of babies born in North Carolina is different than 7 pounds?

data(ncbirths)

n_replicates <- 1500

weight_mean_ht <- ncbirths %>%
  specify(response = weight) %>%
  hypothesize(null = "point", mu = 7) %>% 
  generate(reps = n_replicates, type = "bootstrap") %>% 
  calculate(stat = "mean")

weight_mean_ht

## # A tibble: 1,500 x 2
##    replicate  stat
##  *     <int> <dbl>
##  1         1  7.08
##  2         2  7.01
##  3         3  7.00
##  4         4  7.00
##  5         5  6.93
##  6         6  6.95
##  7         7  6.97
##  8         8  7.03
##  9         9  7.04
## 10        10  7.00
## # … with 1,490 more rows
…
